BIOS 611 Project 1
…
BIOS 611 Project 1

Christina Zhou

9/25/2019

Data source

Urban Ministries of Durham (UMD) is a non-profit organization that focuses on lowering the communitys rate of homelessness by providing food, shelter and other resources to those in need. In 2001, three organizations (Durham Community Shelter for HOPE, St.Philips Community Cafe, and the United Methodist Mission Society) merged to create UMD as it exists today.

UMD has been collecting data about people who utilize its resources for decades. This data includes an identifier (ID), date of visit, number of people the food from that visit provided for, pounds of food taken from food pantry, amount of clothing taken from clothing closet, and more. The total number of observations of this data is 79838. Since UMD as it is known today was created in 2001, we truncate our dataset to be collected data from January 1, 2001 to the last consecutive date towards the end, which is July 17, 2019.

For this project, we focus our data analysis on examining the relationship of number of visits and average pounds of food per visit between family households and single households. We would expect family households to obtain more food, and perhaps have less visits to UMD (maybe because they are trying harder to find a sustainable home due to more members at stake). To do this, we define an observation as part of a family household if the number of people the food given that visit was provided for more than 1 person, and as a single household otherwise. Because of this, we want to limit our population to those who are not missing data for the Food.Provided.for (number of people the food given that visit was provided for) and Food.Pounds (the number of pounds given for that visit) variables.

## # A tibble: 9,906 x 5
##    Client.File.Number no_visits first_year last_year range_years
##                 <int>     <int>      <dbl>     <dbl>       <dbl>
##  1               6191        29       2001      2019          19
##  2              12462        28       2001      2019          19
##  3               4393        14       2001      2018          18
##  4              11033        14       2001      2018          18
##  5              12267        32       2001      2018          18
##  6              12980         2       2001      2018          18
##  7               4212        14       2001      2017          17
##  8               5631        48       2001      2017          17
##  9               6706        65       2001      2017          17
## 10              11271        14       2001      2017          17
## #  with 9,896 more rows
…
